\relax 
\newlabel{eq:edgesanity}{{1}{1}}
\newlabel{eq:flowcons}{{2}{1}}
\newlabel{eq:flowconsin}{{3}{1}}
\newlabel{eq:flowconsin}{{4}{1}}
\newlabel{eq:degreecons}{{5}{1}}
\newlabel{eq:degreecons}{{6}{2}}
