
dl_type=0x0800, priority=1, dl_src=127.0.0.1, dl_dst=10.0.0.2, in_port=1, nw_src=0x0::0x0::0x0::0x0::0x0::0x2, nw_dst=0x0::0x0::0x0::0x0::0x0::0x2, actions=output:2
dl_type=0x0800, priority=1, dl_src=127.0.0.1, dl_dst=10.0.0.2, in_port=1, nw_src=0x0::0x0::0x0::0x0::0x0::0x2, nw_dst=0x0::0x0::0x0::0x0::0x0::0x2, actions=output:2
dl_type=0x0800, priority=1, dl_src=127.0.0.1, dl_dst=127.0.0.1, in_port=1, nw_src=0x0::0x0::0x0::0x0::0x0::0x2, nw_dst=0x0::0x0::0x0::0x0::0x0::0x2, actions=output:2
dl_type=0x0800, priority=1, dl_src=127.0.0.1, dl_dst=10.0.0.1, in_port=1, nw_src=0x0::0x0::0x0::0x0::0x0::0x1, nw_dst=0x0::0x0::0x0::0x0::0x0::0x1, actions=output:2
dl_type=0x0800, priority=1, dl_src=127.0.0.1, dl_dst=127.0.0.1, in_port=1, nw_src=0x0::0x0::0x0::0x0::0x0::0x3, nw_dst=0x0::0x0::0x0::0x0::0x0::0x3, actions=output:2
dl_type=0x0800, priority=1, dl_src=127.0.0.1, dl_dst=127.0.0.1, in_port=1, nw_src=0x0::0x0::0x0::0x0::0x0::0x3, nw_dst=0x0::0x0::0x0::0x0::0x0::0x3, actions=output:2
dl_type=0x0800, priority=1, dl_src=127.0.0.1, dl_dst=127.0.0.1, in_port=1, nw_src=0x0::0x0::0x0::0x0::0x0::0x2, nw_dst=0x0::0x0::0x0::0x0::0x0::0x2, actions=output:2
dl_type=0x0800, priority=1, dl_src=127.0.0.1, dl_dst=127.0.0.1, in_port=1, nw_src=0x0::0x0::0x0::0x0::0x0::0x3, nw_dst=0x0::0x0::0x0::0x0::0x0::0x3, actions=output:2
dl_type=0x0800, priority=1, dl_src=127.0.0.1, dl_dst=127.0.0.1, in_port=1, nw_src=0x0::0x0::0x0::0x0::0x0::0x2, nw_dst=0x0::0x0::0x0::0x0::0x0::0x2, actions=output:2
dl_type=0x0800, priority=1, dl_src=127.0.0.1, dl_dst=127.0.0.1, in_port=1, nw_src=0x0::0x0::0x0::0x0::0x0::0x3, nw_dst=0x0::0x0::0x0::0x0::0x0::0x3, actions=output:2
dl_type=0x0800, priority=1, dl_src=127.0.0.1, dl_dst=10.0.0.1, in_port=1, nw_src=0x0::0x0::0x0::0x0::0x0::0x1, nw_dst=0x0::0x0::0x0::0x0::0x0::0x1, actions=output:2
dl_type=0x0800, priority=1, dl_src=127.0.0.1, dl_dst=10.0.0.2, in_port=1, nw_src=0x0::0x0::0x0::0x0::0x0::0x2, nw_dst=0x0::0x0::0x0::0x0::0x0::0x2, actions=output:2
dl_type=0x0800, priority=1, dl_src=127.0.0.1, dl_dst=10.0.0.1, in_port=1, nw_src=0x0::0x0::0x0::0x0::0x0::0x1, nw_dst=0x0::0x0::0x0::0x0::0x0::0x1, actions=output:2
dl_type=0x0800, priority=1, dl_src=127.0.0.1, dl_dst=10.0.0.2, in_port=1, nw_src=0x0::0x0::0x0::0x0::0x0::0x2, nw_dst=0x0::0x0::0x0::0x0::0x0::0x2, actions=output:2
dl_type=0x0800, priority=1, dl_src=127.0.0.1, dl_dst=10.0.0.2, in_port=1, nw_src=0x0::0x0::0x0::0x0::0x0::0x2, nw_dst=0x0::0x0::0x0::0x0::0x0::0x2, actions=output:2
dl_type=0x0800, priority=1, dl_src=127.0.0.1, dl_dst=127.0.0.1, in_port=1, nw_src=0x0::0x0::0x0::0x0::0x0::0x2, nw_dst=0x0::0x0::0x0::0x0::0x0::0x2, actions=output:2
dl_type=0x0800, priority=1, dl_src=127.0.0.1, dl_dst=10.0.0.1, in_port=1, nw_src=0x0::0x0::0x0::0x0::0x0::0x1, nw_dst=0x0::0x0::0x0::0x0::0x0::0x1, actions=output:2
dl_type=0x0800, priority=1, dl_src=127.0.0.1, dl_dst=127.0.0.1, in_port=1, nw_src=0x0::0x0::0x0::0x0::0x0::0x3, nw_dst=0x0::0x0::0x0::0x0::0x0::0x3, actions=output:2
dl_type=0x0800, priority=1, dl_src=127.0.0.1, dl_dst=127.0.0.1, in_port=1, nw_src=0x0::0x0::0x0::0x0::0x0::0x3, nw_dst=0x0::0x0::0x0::0x0::0x0::0x3, actions=output:2
dl_type=0x0800, priority=1, dl_src=127.0.0.1, dl_dst=127.0.0.1, in_port=1, nw_src=0x0::0x0::0x0::0x0::0x0::0x2, nw_dst=0x0::0x0::0x0::0x0::0x0::0x2, actions=output:2
dl_type=0x0800, priority=1, dl_src=127.0.0.1, dl_dst=127.0.0.1, in_port=1, nw_src=0x0::0x0::0x0::0x0::0x0::0x3, nw_dst=0x0::0x0::0x0::0x0::0x0::0x3, actions=output:2
dl_type=0x0800, priority=1, dl_src=127.0.0.1, dl_dst=127.0.0.1, in_port=1, nw_src=0x0::0x0::0x0::0x0::0x0::0x2, nw_dst=0x0::0x0::0x0::0x0::0x0::0x2, actions=output:2
dl_type=0x0800, priority=1, dl_src=127.0.0.1, dl_dst=127.0.0.1, in_port=1, nw_src=0x0::0x0::0x0::0x0::0x0::0x3, nw_dst=0x0::0x0::0x0::0x0::0x0::0x3, actions=output:2
dl_type=0x0800, priority=1, dl_src=127.0.0.1, dl_dst=10.0.0.1, in_port=1, nw_src=0x0::0x0::0x0::0x0::0x0::0x1, nw_dst=0x0::0x0::0x0::0x0::0x0::0x1, actions=output:2
dl_type=0x0800, priority=1, dl_src=127.0.0.1, dl_dst=10.0.0.2, in_port=1, nw_src=0x0::0x0::0x0::0x0::0x0::0x2, nw_dst=0x0::0x0::0x0::0x0::0x0::0x2, actions=output:2
dl_type=0x0800, priority=1, dl_src=127.0.0.1, dl_dst=10.0.0.1, in_port=1, nw_src=0x0::0x0::0x0::0x0::0x0::0x1, nw_dst=0x0::0x0::0x0::0x0::0x0::0x1, actions=output:2
dl_type=0x0800, priority=1, dl_src=127.0.0.1, dl_dst=10.0.0.2, in_port=1, nw_src=0x0::0x0::0x0::0x0::0x0::0x2, nw_dst=0x0::0x0::0x0::0x0::0x0::0x2, actions=output:2
dl_type=0x0800, priority=1, dl_src=127.0.0.1, dl_dst=10.0.0.2, in_port=1, nw_src=0x0::0x0::0x0::0x0::0x0::0x2, nw_dst=0x0::0x0::0x0::0x0::0x0::0x2, actions=output:2
dl_type=0x0800, priority=1, dl_src=127.0.0.1, dl_dst=127.0.0.1, in_port=1, nw_src=0x0::0x0::0x0::0x0::0x0::0x2, nw_dst=0x0::0x0::0x0::0x0::0x0::0x2, actions=output:2
dl_type=0x0800, priority=1, dl_src=127.0.0.1, dl_dst=10.0.0.1, in_port=1, nw_src=0x0::0x0::0x0::0x0::0x0::0x1, nw_dst=0x0::0x0::0x0::0x0::0x0::0x1, actions=output:2
dl_type=0x0800, priority=1, dl_src=127.0.0.1, dl_dst=127.0.0.1, in_port=1, nw_src=0x0::0x0::0x0::0x0::0x0::0x3, nw_dst=0x0::0x0::0x0::0x0::0x0::0x3, actions=output:2
dl_type=0x0800, priority=1, dl_src=127.0.0.1, dl_dst=127.0.0.1, in_port=1, nw_src=0x0::0x0::0x0::0x0::0x0::0x3, nw_dst=0x0::0x0::0x0::0x0::0x0::0x3, actions=output:2
dl_type=0x0800, priority=1, dl_src=127.0.0.1, dl_dst=127.0.0.1, in_port=1, nw_src=0x0::0x0::0x0::0x0::0x0::0x2, nw_dst=0x0::0x0::0x0::0x0::0x0::0x2, actions=output:2
dl_type=0x0800, priority=1, dl_src=127.0.0.1, dl_dst=127.0.0.1, in_port=1, nw_src=0x0::0x0::0x0::0x0::0x0::0x3, nw_dst=0x0::0x0::0x0::0x0::0x0::0x3, actions=output:2
dl_type=0x0800, priority=1, dl_src=127.0.0.1, dl_dst=127.0.0.1, in_port=1, nw_src=0x0::0x0::0x0::0x0::0x0::0x2, nw_dst=0x0::0x0::0x0::0x0::0x0::0x2, actions=output:2
dl_type=0x0800, priority=1, dl_src=127.0.0.1, dl_dst=127.0.0.1, in_port=1, nw_src=0x0::0x0::0x0::0x0::0x0::0x3, nw_dst=0x0::0x0::0x0::0x0::0x0::0x3, actions=output:2
dl_type=0x0800, priority=1, dl_src=127.0.0.1, dl_dst=10.0.0.1, in_port=1, nw_src=0x0::0x0::0x0::0x0::0x0::0x1, nw_dst=0x0::0x0::0x0::0x0::0x0::0x1, actions=output:2
dl_type=0x0800, priority=1, dl_src=127.0.0.1, dl_dst=10.0.0.2, in_port=1, nw_src=0x0::0x0::0x0::0x0::0x0::0x2, nw_dst=0x0::0x0::0x0::0x0::0x0::0x2, actions=output:2
dl_type=0x0800, priority=1, dl_src=127.0.0.1, dl_dst=10.0.0.1, in_port=1, nw_src=0x0::0x0::0x0::0x0::0x0::0x1, nw_dst=0x0::0x0::0x0::0x0::0x0::0x1, actions=output:2
dl_type=0x0800, priority=1, dl_src=127.0.0.1, dl_dst=10.0.0.2, in_port=1, nw_src=0x0::0x0::0x0::0x0::0x0::0x2, nw_dst=0x0::0x0::0x0::0x0::0x0::0x2, actions=output:2
dl_type=0x0800, priority=1, dl_src=127.0.0.1, dl_dst=10.0.0.2, in_port=1, nw_src=0x0::0x0::0x0::0x0::0x0::0x2, nw_dst=0x0::0x0::0x0::0x0::0x0::0x2, actions=output:2
dl_type=0x0800, priority=1, dl_src=127.0.0.1, dl_dst=127.0.0.1, in_port=1, nw_src=0x0::0x0::0x0::0x0::0x0::0x2, nw_dst=0x0::0x0::0x0::0x0::0x0::0x2, actions=output:2
dl_type=0x0800, priority=1, dl_src=127.0.0.1, dl_dst=10.0.0.1, in_port=1, nw_src=0x0::0x0::0x0::0x0::0x0::0x1, nw_dst=0x0::0x0::0x0::0x0::0x0::0x1, actions=output:2
dl_type=0x0800, priority=1, dl_src=127.0.0.1, dl_dst=127.0.0.1, in_port=1, nw_src=0x0::0x0::0x0::0x0::0x0::0x3, nw_dst=0x0::0x0::0x0::0x0::0x0::0x3, actions=output:2
dl_type=0x0800, priority=1, dl_src=127.0.0.1, dl_dst=127.0.0.1, in_port=1, nw_src=0x0::0x0::0x0::0x0::0x0::0x3, nw_dst=0x0::0x0::0x0::0x0::0x0::0x3, actions=output:2
dl_type=0x0800, priority=1, dl_src=127.0.0.1, dl_dst=127.0.0.1, in_port=1, nw_src=0x0::0x0::0x0::0x0::0x0::0x2, nw_dst=0x0::0x0::0x0::0x0::0x0::0x2, actions=output:2
dl_type=0x0800, priority=1, dl_src=127.0.0.1, dl_dst=127.0.0.1, in_port=1, nw_src=0x0::0x0::0x0::0x0::0x0::0x3, nw_dst=0x0::0x0::0x0::0x0::0x0::0x3, actions=output:2
dl_type=0x0800, priority=1, dl_src=127.0.0.1, dl_dst=127.0.0.1, in_port=1, nw_src=0x0::0x0::0x0::0x0::0x0::0x2, nw_dst=0x0::0x0::0x0::0x0::0x0::0x2, actions=output:2
dl_type=0x0800, priority=1, dl_src=127.0.0.1, dl_dst=127.0.0.1, in_port=1, nw_src=0x0::0x0::0x0::0x0::0x0::0x3, nw_dst=0x0::0x0::0x0::0x0::0x0::0x3, actions=output:2
dl_type=0x0800, priority=1, dl_src=127.0.0.1, dl_dst=10.0.0.1, in_port=1, nw_src=0x0::0x0::0x0::0x0::0x0::0x1, nw_dst=0x0::0x0::0x0::0x0::0x0::0x1, actions=output:2
dl_type=0x0800, priority=1, dl_src=127.0.0.1, dl_dst=10.0.0.2, in_port=1, nw_src=0x0::0x0::0x0::0x0::0x0::0x2, nw_dst=0x0::0x0::0x0::0x0::0x0::0x2, actions=output:2
dl_type=0x0800, priority=1, dl_src=127.0.0.1, dl_dst=10.0.0.1, in_port=1, nw_src=0x0::0x0::0x0::0x0::0x0::0x1, nw_dst=0x0::0x0::0x0::0x0::0x0::0x1, actions=output:2
dl_type=0x0800, priority=1, dl_src=127.0.0.1, dl_dst=10.0.0.2, in_port=1, nw_src=0x0::0x0::0x0::0x0::0x0::0x2, nw_dst=0x0::0x0::0x0::0x0::0x0::0x2, actions=output:2
dl_type=0x0800, priority=1, dl_src=127.0.0.1, dl_dst=10.0.0.2, in_port=1, nw_src=0x0::0x0::0x0::0x0::0x0::0x2, nw_dst=0x0::0x0::0x0::0x0::0x0::0x2, actions=output:2
dl_type=0x0800, priority=1, dl_src=127.0.0.1, dl_dst=127.0.0.1, in_port=1, nw_src=0x0::0x0::0x0::0x0::0x0::0x2, nw_dst=0x0::0x0::0x0::0x0::0x0::0x2, actions=output:2
dl_type=0x0800, priority=1, dl_src=127.0.0.1, dl_dst=10.0.0.1, in_port=1, nw_src=0x0::0x0::0x0::0x0::0x0::0x1, nw_dst=0x0::0x0::0x0::0x0::0x0::0x1, actions=output:2
dl_type=0x0800, priority=1, dl_src=127.0.0.1, dl_dst=127.0.0.1, in_port=1, nw_src=0x0::0x0::0x0::0x0::0x0::0x3, nw_dst=0x0::0x0::0x0::0x0::0x0::0x3, actions=output:2
dl_type=0x0800, priority=1, dl_src=127.0.0.1, dl_dst=127.0.0.1, in_port=1, nw_src=0x0::0x0::0x0::0x0::0x0::0x3, nw_dst=0x0::0x0::0x0::0x0::0x0::0x3, actions=output:2
dl_type=0x0800, priority=1, dl_src=127.0.0.1, dl_dst=127.0.0.1, in_port=1, nw_src=0x0::0x0::0x0::0x0::0x0::0x2, nw_dst=0x0::0x0::0x0::0x0::0x0::0x2, actions=output:2
dl_type=0x0800, priority=1, dl_src=127.0.0.1, dl_dst=127.0.0.1, in_port=1, nw_src=0x0::0x0::0x0::0x0::0x0::0x3, nw_dst=0x0::0x0::0x0::0x0::0x0::0x3, actions=output:2
dl_type=0x0800, priority=1, dl_src=127.0.0.1, dl_dst=127.0.0.1, in_port=1, nw_src=0x0::0x0::0x0::0x0::0x0::0x2, nw_dst=0x0::0x0::0x0::0x0::0x0::0x2, actions=output:2
dl_type=0x0800, priority=1, dl_src=127.0.0.1, dl_dst=127.0.0.1, in_port=1, nw_src=0x0::0x0::0x0::0x0::0x0::0x3, nw_dst=0x0::0x0::0x0::0x0::0x0::0x3, actions=output:2
dl_type=0x0800, priority=1, dl_src=127.0.0.1, dl_dst=10.0.0.1, in_port=1, nw_src=0x0::0x0::0x0::0x0::0x0::0x1, nw_dst=0x0::0x0::0x0::0x0::0x0::0x1, actions=output:2
dl_type=0x0800, priority=1, dl_src=127.0.0.1, dl_dst=10.0.0.2, in_port=1, nw_src=0x0::0x0::0x0::0x0::0x0::0x2, nw_dst=0x0::0x0::0x0::0x0::0x0::0x2, actions=output:2
dl_type=0x0800, priority=1, dl_src=127.0.0.1, dl_dst=10.0.0.1, in_port=1, nw_src=0x0::0x0::0x0::0x0::0x0::0x1, nw_dst=0x0::0x0::0x0::0x0::0x0::0x1, actions=output:2
dl_type=0x0800, priority=1, dl_src=127.0.0.1, dl_dst=10.0.0.2, in_port=1, nw_src=0x0::0x0::0x0::0x0::0x0::0x2, nw_dst=0x0::0x0::0x0::0x0::0x0::0x2, actions=output:2
dl_type=0x0800, priority=1, dl_src=127.0.0.1, dl_dst=10.0.0.2, in_port=1, nw_src=0x0::0x0::0x0::0x0::0x0::0x2, nw_dst=0x0::0x0::0x0::0x0::0x0::0x2, actions=output:2
dl_type=0x0800, priority=1, dl_src=127.0.0.1, dl_dst=127.0.0.1, in_port=1, nw_src=0x0::0x0::0x0::0x0::0x0::0x2, nw_dst=0x0::0x0::0x0::0x0::0x0::0x2, actions=output:2
dl_type=0x0800, priority=1, dl_src=127.0.0.1, dl_dst=10.0.0.1, in_port=1, nw_src=0x0::0x0::0x0::0x0::0x0::0x1, nw_dst=0x0::0x0::0x0::0x0::0x0::0x1, actions=output:2
dl_type=0x0800, priority=1, dl_src=127.0.0.1, dl_dst=127.0.0.1, in_port=1, nw_src=0x0::0x0::0x0::0x0::0x0::0x3, nw_dst=0x0::0x0::0x0::0x0::0x0::0x3, actions=output:2
dl_type=0x0800, priority=1, dl_src=127.0.0.1, dl_dst=127.0.0.1, in_port=1, nw_src=0x0::0x0::0x0::0x0::0x0::0x3, nw_dst=0x0::0x0::0x0::0x0::0x0::0x3, actions=output:2
dl_type=0x0800, priority=1, dl_src=127.0.0.1, dl_dst=127.0.0.1, in_port=1, nw_src=0x0::0x0::0x0::0x0::0x0::0x2, nw_dst=0x0::0x0::0x0::0x0::0x0::0x2, actions=output:2
dl_type=0x0800, priority=1, dl_src=127.0.0.1, dl_dst=127.0.0.1, in_port=1, nw_src=0x0::0x0::0x0::0x0::0x0::0x3, nw_dst=0x0::0x0::0x0::0x0::0x0::0x3, actions=output:2
dl_type=0x0800, priority=1, dl_src=127.0.0.1, dl_dst=127.0.0.1, in_port=1, nw_src=0x0::0x0::0x0::0x0::0x0::0x2, nw_dst=0x0::0x0::0x0::0x0::0x0::0x2, actions=output:2
dl_type=0x0800, priority=1, dl_src=127.0.0.1, dl_dst=127.0.0.1, in_port=1, nw_src=0x0::0x0::0x0::0x0::0x0::0x3, nw_dst=0x0::0x0::0x0::0x0::0x0::0x3, actions=output:2
dl_type=0x0800, priority=1, dl_src=127.0.0.1, dl_dst=10.0.0.1, in_port=1, nw_src=0x0::0x0::0x0::0x0::0x0::0x1, nw_dst=0x0::0x0::0x0::0x0::0x0::0x1, actions=output:2
dl_type=0x0800, priority=1, dl_src=127.0.0.1, dl_dst=10.0.0.2, in_port=1, nw_src=0x0::0x0::0x0::0x0::0x0::0x2, nw_dst=0x0::0x0::0x0::0x0::0x0::0x2, actions=output:2
dl_type=0x0800, priority=1, dl_src=127.0.0.1, dl_dst=10.0.0.1, in_port=1, nw_src=0x0::0x0::0x0::0x0::0x0::0x1, nw_dst=0x0::0x0::0x0::0x0::0x0::0x1, actions=output:2
dl_type=0x0800, priority=1, dl_src=127.0.0.1, dl_dst=10.0.0.2, in_port=1, nw_src=0x0::0x0::0x0::0x0::0x0::0x2, nw_dst=0x0::0x0::0x0::0x0::0x0::0x2, actions=output:2
dl_type=0x0800, priority=1, dl_src=127.0.0.1, dl_dst=10.0.0.2, in_port=1, nw_src=0::0::0::0::0::2, nw_dst=0x0::0x0::0x0::0x0::0x0::0x2, actions=output:2
dl_type=0x0800, priority=1, dl_src=127.0.0.1, dl_dst=127.0.0.1, in_port=1, nw_src=0::0::0::0::0::2, nw_dst=0x0::0x0::0x0::0x0::0x0::0x2, actions=output:2
dl_type=0x0800, priority=1, dl_src=127.0.0.1, dl_dst=10.0.0.1, in_port=1, nw_src=0::0::0::0::0::1, nw_dst=0x0::0x0::0x0::0x0::0x0::0x1, actions=output:2
dl_type=0x0800, priority=1, dl_src=127.0.0.1, dl_dst=127.0.0.1, in_port=1, nw_src=0::0::0::0::0::3, nw_dst=0x0::0x0::0x0::0x0::0x0::0x3, actions=output:2
dl_type=0x0800, priority=1, dl_src=127.0.0.1, dl_dst=127.0.0.1, in_port=1, nw_src=0::0::0::0::0::3, nw_dst=0x0::0x0::0x0::0x0::0x0::0x3, actions=output:2
dl_type=0x0800, priority=1, dl_src=127.0.0.1, dl_dst=127.0.0.1, in_port=1, nw_src=0::0::0::0::0::2, nw_dst=0x0::0x0::0x0::0x0::0x0::0x2, actions=output:2
dl_type=0x0800, priority=1, dl_src=127.0.0.1, dl_dst=127.0.0.1, in_port=1, nw_src=0::0::0::0::0::3, nw_dst=0x0::0x0::0x0::0x0::0x0::0x3, actions=output:2
dl_type=0x0800, priority=1, dl_src=127.0.0.1, dl_dst=127.0.0.1, in_port=1, nw_src=0::0::0::0::0::2, nw_dst=0x0::0x0::0x0::0x0::0x0::0x2, actions=output:2
dl_type=0x0800, priority=1, dl_src=127.0.0.1, dl_dst=127.0.0.1, in_port=1, nw_src=0::0::0::0::0::3, nw_dst=0x0::0x0::0x0::0x0::0x0::0x3, actions=output:2
dl_type=0x0800, priority=1, dl_src=127.0.0.1, dl_dst=10.0.0.1, in_port=1, nw_src=0::0::0::0::0::1, nw_dst=0x0::0x0::0x0::0x0::0x0::0x1, actions=output:2
dl_type=0x0800, priority=1, dl_src=127.0.0.1, dl_dst=10.0.0.2, in_port=1, nw_src=0::0::0::0::0::2, nw_dst=0x0::0x0::0x0::0x0::0x0::0x2, actions=output:2
dl_type=0x0800, priority=1, dl_src=127.0.0.1, dl_dst=10.0.0.1, in_port=1, nw_src=0::0::0::0::0::1, nw_dst=0x0::0x0::0x0::0x0::0x0::0x1, actions=output:2
dl_type=0x0800, priority=1, dl_src=127.0.0.1, dl_dst=10.0.0.2, in_port=1, nw_src=0::0::0::0::0::2, nw_dst=0x0::0x0::0x0::0x0::0x0::0x2, actions=output:2
dl_type=0x0800, priority=1, dl_src=127.0.0.1, dl_dst=10.0.0.2, in_port=1, nw_src=00::00::00::00::00::2, nw_dst=00::00::00::00::00::02, actions=output:2
dl_type=0x0800, priority=1, dl_src=127.0.0.1, dl_dst=127.0.0.1, in_port=1, nw_src=00::00::00::00::00::2, nw_dst=00::00::00::00::00::02, actions=output:2
dl_type=0x0800, priority=1, dl_src=127.0.0.1, dl_dst=10.0.0.1, in_port=1, nw_src=00::00::00::00::00::1, nw_dst=00::00::00::00::00::01, actions=output:2
dl_type=0x0800, priority=1, dl_src=127.0.0.1, dl_dst=127.0.0.1, in_port=1, nw_src=00::00::00::00::00::3, nw_dst=00::00::00::00::00::03, actions=output:2
dl_type=0x0800, priority=1, dl_src=127.0.0.1, dl_dst=127.0.0.1, in_port=1, nw_src=00::00::00::00::00::3, nw_dst=00::00::00::00::00::03, actions=output:2
dl_type=0x0800, priority=1, dl_src=127.0.0.1, dl_dst=127.0.0.1, in_port=1, nw_src=00::00::00::00::00::2, nw_dst=00::00::00::00::00::02, actions=output:2
dl_type=0x0800, priority=1, dl_src=127.0.0.1, dl_dst=127.0.0.1, in_port=1, nw_src=00::00::00::00::00::3, nw_dst=00::00::00::00::00::03, actions=output:2
dl_type=0x0800, priority=1, dl_src=127.0.0.1, dl_dst=127.0.0.1, in_port=1, nw_src=00::00::00::00::00::2, nw_dst=00::00::00::00::00::02, actions=output:2
dl_type=0x0800, priority=1, dl_src=127.0.0.1, dl_dst=127.0.0.1, in_port=1, nw_src=00::00::00::00::00::3, nw_dst=00::00::00::00::00::03, actions=output:2
dl_type=0x0800, priority=1, dl_src=127.0.0.1, dl_dst=10.0.0.1, in_port=1, nw_src=00::00::00::00::00::1, nw_dst=00::00::00::00::00::01, actions=output:2
dl_type=0x0800, priority=1, dl_src=127.0.0.1, dl_dst=10.0.0.2, in_port=1, nw_src=00::00::00::00::00::2, nw_dst=00::00::00::00::00::02, actions=output:2
dl_type=0x0800, priority=1, dl_src=127.0.0.1, dl_dst=10.0.0.1, in_port=1, nw_src=00::00::00::00::00::1, nw_dst=00::00::00::00::00::01, actions=output:2
dl_type=0x0800, priority=1, dl_src=127.0.0.1, dl_dst=10.0.0.2, in_port=1, nw_src=00::00::00::00::00::2, nw_dst=00::00::00::00::00::02, actions=output:2
dl_type=0x0800, priority=1, dl_src=127.0.0.1, dl_dst=10.0.0.2, in_port=1, nw_src=00::00::00::00::00::02, nw_dst=00::00::00::00::00::02, actions=output:2
dl_type=0x0800, priority=1, dl_src=127.0.0.1, dl_dst=127.0.0.1, in_port=1, nw_src=00::00::00::00::00::02, nw_dst=00::00::00::00::00::02, actions=output:2
dl_type=0x0800, priority=1, dl_src=127.0.0.1, dl_dst=10.0.0.1, in_port=1, nw_src=00::00::00::00::00::01, nw_dst=00::00::00::00::00::01, actions=output:2
dl_type=0x0800, priority=1, dl_src=127.0.0.1, dl_dst=127.0.0.1, in_port=1, nw_src=00::00::00::00::00::03, nw_dst=00::00::00::00::00::03, actions=output:2
dl_type=0x0800, priority=1, dl_src=127.0.0.1, dl_dst=127.0.0.1, in_port=1, nw_src=00::00::00::00::00::03, nw_dst=00::00::00::00::00::03, actions=output:2
dl_type=0x0800, priority=1, dl_src=127.0.0.1, dl_dst=127.0.0.1, in_port=1, nw_src=00::00::00::00::00::02, nw_dst=00::00::00::00::00::02, actions=output:2
dl_type=0x0800, priority=1, dl_src=127.0.0.1, dl_dst=127.0.0.1, in_port=1, nw_src=00::00::00::00::00::03, nw_dst=00::00::00::00::00::03, actions=output:2
dl_type=0x0800, priority=1, dl_src=127.0.0.1, dl_dst=127.0.0.1, in_port=1, nw_src=00::00::00::00::00::02, nw_dst=00::00::00::00::00::02, actions=output:2
dl_type=0x0800, priority=1, dl_src=127.0.0.1, dl_dst=127.0.0.1, in_port=1, nw_src=00::00::00::00::00::03, nw_dst=00::00::00::00::00::03, actions=output:2
dl_type=0x0800, priority=1, dl_src=127.0.0.1, dl_dst=10.0.0.1, in_port=1, nw_src=00::00::00::00::00::01, nw_dst=00::00::00::00::00::01, actions=output:2
dl_type=0x0800, priority=1, dl_src=127.0.0.1, dl_dst=10.0.0.2, in_port=1, nw_src=00::00::00::00::00::02, nw_dst=00::00::00::00::00::02, actions=output:2
dl_type=0x0800, priority=1, dl_src=127.0.0.1, dl_dst=10.0.0.1, in_port=1, nw_src=00::00::00::00::00::01, nw_dst=00::00::00::00::00::01, actions=output:2
dl_type=0x0800, priority=1, dl_src=127.0.0.1, dl_dst=10.0.0.2, in_port=1, nw_src=00::00::00::00::00::02, nw_dst=00::00::00::00::00::02, actions=output:2
dl_type=0x0800, priority=1, dl_src=127.0.0.1, dl_dst=10.0.0.2, in_port=1, nw_src=00::00::00::00::00::02, nw_dst=00::00::00::00::00::02, actions=output:2
dl_type=0x0800, priority=1, dl_src=127.0.0.1, dl_dst=127.0.0.1, in_port=1, nw_src=00::00::00::00::00::02, nw_dst=00::00::00::00::00::02, actions=output:2
dl_type=0x0800, priority=1, dl_src=127.0.0.1, dl_dst=10.0.0.1, in_port=1, nw_src=00::00::00::00::00::01, nw_dst=00::00::00::00::00::01, actions=output:2
dl_type=0x0800, priority=1, dl_src=127.0.0.1, dl_dst=127.0.0.1, in_port=1, nw_src=00::00::00::00::00::03, nw_dst=00::00::00::00::00::03, actions=output:2
dl_type=0x0800, priority=1, dl_src=127.0.0.1, dl_dst=127.0.0.1, in_port=1, nw_src=00::00::00::00::00::03, nw_dst=00::00::00::00::00::03, actions=output:2
dl_type=0x0800, priority=1, dl_src=127.0.0.1, dl_dst=127.0.0.1, in_port=1, nw_src=00::00::00::00::00::02, nw_dst=00::00::00::00::00::02, actions=output:2
dl_type=0x0800, priority=1, dl_src=127.0.0.1, dl_dst=127.0.0.1, in_port=1, nw_src=00::00::00::00::00::03, nw_dst=00::00::00::00::00::03, actions=output:2
dl_type=0x0800, priority=1, dl_src=127.0.0.1, dl_dst=127.0.0.1, in_port=1, nw_src=00::00::00::00::00::02, nw_dst=00::00::00::00::00::02, actions=output:2
dl_type=0x0800, priority=1, dl_src=127.0.0.1, dl_dst=127.0.0.1, in_port=1, nw_src=00::00::00::00::00::03, nw_dst=00::00::00::00::00::03, actions=output:2
dl_type=0x0800, priority=1, dl_src=127.0.0.1, dl_dst=10.0.0.1, in_port=1, nw_src=00::00::00::00::00::01, nw_dst=00::00::00::00::00::01, actions=output:2
dl_type=0x0800, priority=1, dl_src=127.0.0.1, dl_dst=10.0.0.2, in_port=1, nw_src=00::00::00::00::00::02, nw_dst=00::00::00::00::00::02, actions=output:2
dl_type=0x0800, priority=1, dl_src=127.0.0.1, dl_dst=10.0.0.1, in_port=1, nw_src=00::00::00::00::00::01, nw_dst=00::00::00::00::00::01, actions=output:2
dl_type=0x0800, priority=1, dl_src=127.0.0.1, dl_dst=10.0.0.2, in_port=1, nw_src=00::00::00::00::00::02, nw_dst=00::00::00::00::00::02, actions=output:2
dl_type=0x0800, priority=1, dl_src=127.0.0.1, dl_dst=10.0.0.2, in_port=1, nw_src=00::00::00::00::00::02, nw_dst=00::00::00::00::00::02, actions=output:2
dl_type=0x0800, priority=1, dl_src=127.0.0.1, dl_dst=127.0.0.1, in_port=1, nw_src=00::00::00::00::00::02, nw_dst=00::00::00::00::00::02, actions=output:2
dl_type=0x0800, priority=1, dl_src=127.0.0.1, dl_dst=10.0.0.1, in_port=1, nw_src=00::00::00::00::00::01, nw_dst=00::00::00::00::00::01, actions=output:2
dl_type=0x0800, priority=1, dl_src=127.0.0.1, dl_dst=127.0.0.1, in_port=1, nw_src=00::00::00::00::00::03, nw_dst=00::00::00::00::00::03, actions=output:2
dl_type=0x0800, priority=1, dl_src=127.0.0.1, dl_dst=127.0.0.1, in_port=1, nw_src=00::00::00::00::00::03, nw_dst=00::00::00::00::00::03, actions=output:2
dl_type=0x0800, priority=1, dl_src=127.0.0.1, dl_dst=127.0.0.1, in_port=1, nw_src=00::00::00::00::00::02, nw_dst=00::00::00::00::00::02, actions=output:2
dl_type=0x0800, priority=1, dl_src=127.0.0.1, dl_dst=127.0.0.1, in_port=1, nw_src=00::00::00::00::00::03, nw_dst=00::00::00::00::00::03, actions=output:2
dl_type=0x0800, priority=1, dl_src=127.0.0.1, dl_dst=127.0.0.1, in_port=1, nw_src=00::00::00::00::00::02, nw_dst=00::00::00::00::00::02, actions=output:2
dl_type=0x0800, priority=1, dl_src=127.0.0.1, dl_dst=127.0.0.1, in_port=1, nw_src=00::00::00::00::00::03, nw_dst=00::00::00::00::00::03, actions=output:2
dl_type=0x0800, priority=1, dl_src=127.0.0.1, dl_dst=10.0.0.1, in_port=1, nw_src=00::00::00::00::00::01, nw_dst=00::00::00::00::00::01, actions=output:2
dl_type=0x0800, priority=1, dl_src=127.0.0.1, dl_dst=10.0.0.2, in_port=1, nw_src=00::00::00::00::00::02, nw_dst=00::00::00::00::00::02, actions=output:2
dl_type=0x0800, priority=1, dl_src=127.0.0.1, dl_dst=10.0.0.1, in_port=1, nw_src=00::00::00::00::00::01, nw_dst=00::00::00::00::00::01, actions=output:2
dl_type=0x0800, priority=1, dl_src=127.0.0.1, dl_dst=10.0.0.2, in_port=1, nw_src=00::00::00::00::00::02, nw_dst=00::00::00::00::00::02, actions=output:2
dl_type=0x0800, priority=1, dl_src=127.0.0.1, dl_dst=10.0.0.2, in_port=1, nw_src=00::00::00::00::00::02, nw_dst=00::00::00::00::00::02, actions=output:2
dl_type=0x0800, priority=1, dl_src=127.0.0.1, dl_dst=127.0.0.1, in_port=1, nw_src=00::00::00::00::00::02, nw_dst=00::00::00::00::00::02, actions=output:2
dl_type=0x0800, priority=1, dl_src=127.0.0.1, dl_dst=10.0.0.1, in_port=1, nw_src=00::00::00::00::00::01, nw_dst=00::00::00::00::00::01, actions=output:2
dl_type=0x0800, priority=1, dl_src=127.0.0.1, dl_dst=127.0.0.1, in_port=1, nw_src=00::00::00::00::00::03, nw_dst=00::00::00::00::00::03, actions=output:2
dl_type=0x0800, priority=1, dl_src=127.0.0.1, dl_dst=127.0.0.1, in_port=1, nw_src=00::00::00::00::00::03, nw_dst=00::00::00::00::00::03, actions=output:2
dl_type=0x0800, priority=1, dl_src=127.0.0.1, dl_dst=127.0.0.1, in_port=1, nw_src=00::00::00::00::00::02, nw_dst=00::00::00::00::00::02, actions=output:2
dl_type=0x0800, priority=1, dl_src=127.0.0.1, dl_dst=127.0.0.1, in_port=1, nw_src=00::00::00::00::00::03, nw_dst=00::00::00::00::00::03, actions=output:2
dl_type=0x0800, priority=1, dl_src=127.0.0.1, dl_dst=127.0.0.1, in_port=1, nw_src=00::00::00::00::00::02, nw_dst=00::00::00::00::00::02, actions=output:2
dl_type=0x0800, priority=1, dl_src=127.0.0.1, dl_dst=127.0.0.1, in_port=1, nw_src=00::00::00::00::00::03, nw_dst=00::00::00::00::00::03, actions=output:2
dl_type=0x0800, priority=1, dl_src=127.0.0.1, dl_dst=10.0.0.1, in_port=1, nw_src=00::00::00::00::00::01, nw_dst=00::00::00::00::00::01, actions=output:2
dl_type=0x0800, priority=1, dl_src=127.0.0.1, dl_dst=10.0.0.2, in_port=1, nw_src=00::00::00::00::00::02, nw_dst=00::00::00::00::00::02, actions=output:2
dl_type=0x0800, priority=1, dl_src=127.0.0.1, dl_dst=10.0.0.1, in_port=1, nw_src=00::00::00::00::00::01, nw_dst=00::00::00::00::00::01, actions=output:2
dl_type=0x0800, priority=1, dl_src=127.0.0.1, dl_dst=10.0.0.2, in_port=1, nw_src=00::00::00::00::00::02, nw_dst=00::00::00::00::00::02, actions=output:2
dl_type=0x0800, priority=1, dl_src=127.0.0.1, dl_dst=10.0.0.2, in_port=1, nw_src=00::00::00::00::00::02, nw_dst=00::00::00::00::00::02, actions=output:2
dl_type=0x0800, priority=1, dl_src=127.0.0.1, dl_dst=127.0.0.1, in_port=1, nw_src=00::00::00::00::00::02, nw_dst=00::00::00::00::00::02, actions=output:2
dl_type=0x0800, priority=1, dl_src=127.0.0.1, dl_dst=10.0.0.1, in_port=1, nw_src=00::00::00::00::00::01, nw_dst=00::00::00::00::00::01, actions=output:2
dl_type=0x0800, priority=1, dl_src=127.0.0.1, dl_dst=127.0.0.1, in_port=1, nw_src=00::00::00::00::00::03, nw_dst=00::00::00::00::00::03, actions=output:2
dl_type=0x0800, priority=1, dl_src=127.0.0.1, dl_dst=127.0.0.1, in_port=1, nw_src=00::00::00::00::00::03, nw_dst=00::00::00::00::00::03, actions=output:2
dl_type=0x0800, priority=1, dl_src=127.0.0.1, dl_dst=127.0.0.1, in_port=1, nw_src=00::00::00::00::00::02, nw_dst=00::00::00::00::00::02, actions=output:2
dl_type=0x0800, priority=1, dl_src=127.0.0.1, dl_dst=127.0.0.1, in_port=1, nw_src=00::00::00::00::00::03, nw_dst=00::00::00::00::00::03, actions=output:2
dl_type=0x0800, priority=1, dl_src=127.0.0.1, dl_dst=127.0.0.1, in_port=1, nw_src=00::00::00::00::00::02, nw_dst=00::00::00::00::00::02, actions=output:2
dl_type=0x0800, priority=1, dl_src=127.0.0.1, dl_dst=127.0.0.1, in_port=1, nw_src=00::00::00::00::00::03, nw_dst=00::00::00::00::00::03, actions=output:2
dl_type=0x0800, priority=1, dl_src=127.0.0.1, dl_dst=10.0.0.1, in_port=1, nw_src=00::00::00::00::00::01, nw_dst=00::00::00::00::00::01, actions=output:2
dl_type=0x0800, priority=1, dl_src=127.0.0.1, dl_dst=10.0.0.2, in_port=1, nw_src=00::00::00::00::00::02, nw_dst=00::00::00::00::00::02, actions=output:2
dl_type=0x0800, priority=1, dl_src=127.0.0.1, dl_dst=10.0.0.1, in_port=1, nw_src=00::00::00::00::00::01, nw_dst=00::00::00::00::00::01, actions=output:2
dl_type=0x0800, priority=1, dl_src=127.0.0.1, dl_dst=10.0.0.2, in_port=1, nw_src=00::00::00::00::00::02, nw_dst=00::00::00::00::00::02, actions=output:2